2019-03-22,3.4332,0.92
2019-03-21,3.402,0.49
2019-03-20,3.3855,-0.36
2019-03-19,3.3978,0.01
2019-03-18,3.3973,-0.21
2019-03-15,3.4044,0.04
2019-03-14,3.403,-0.5
2019-03-13,3.4201,-0.06
2019-03-12,3.4223,-0.35
2019-03-11,3.4344,-0.66
2019-03-08,3.4571,1.52
2019-03-07,3.4052,0.14
2019-03-06,3.4006,0.26
2019-03-05,3.3918,0.11
2019-03-04,3.388,-0.01
2019-03-01,3.3884,-0.83
2019-02-28,3.4167,-0.41
2019-02-27,3.4309,-0.25
2019-02-26,3.4394,-0.44
2019-02-25,3.4547,0.08
2019-02-22,3.4518,-0.08
2019-02-21,3.4547,0.13
2019-02-20,3.4501,-0.23
2019-02-19,3.4582,-0.13
2019-02-18,3.4627,-0.24
2019-02-15,3.4712,0.03
2019-02-14,3.47,0.39
2019-02-13,3.4564,-0.43
2019-02-12,3.4714,0.2
2019-02-11,3.4643,0.04
2019-02-08,3.4628,0.48
2019-02-07,3.4463,0.24
2019-02-06,3.4379,0.74
2019-02-05,3.4127,0.25
2019-02-04,3.4043,-0.44
2019-02-01,3.4195,-0.39
2019-01-31,3.4329,-0.09
2019-01-30,3.4359,0.12
2019-01-29,3.4317,-0.13
2019-01-28,3.4362,-0.42
